{ "height":22,
 "layers":[
        {
         "data":[228, 228, 228, 228, 228, 228, 218, 218, 228, 228, 228, 228, 228, 218, 218, 218, 218, 218, 218, 228, 218, 218, 0, 0, 0, 0, 0, 0, 0, 0, 228, 228, 228, 228, 228, 228, 218, 218, 228, 228, 228, 218, 228, 228, 218, 218, 218, 218, 218, 228, 218, 218, 0, 0, 0, 0, 0, 0, 0, 0, 228, 228, 228, 228, 228, 228, 228, 229, 228, 228, 228, 228, 228, 228, 228, 228, 228, 228, 228, 218, 228, 228, 218, 218, 218, 218, 218, 218, 0, 0, 228, 228, 228, 228, 228, 228, 228, 229, 218, 228, 228, 228, 228, 228, 228, 228, 228, 228, 228, 218, 228, 228, 218, 218, 218, 218, 218, 218, 0, 0, 228, 228, 228, 228, 228, 228, 228, 218, 228, 228, 228, 228, 228, 228, 228, 228, 228, 228, 218, 218, 228, 228, 218, 218, 218, 218, 218, 218, 0, 0, 228, 228, 228, 228, 228, 228, 228, 228, 228, 228, 228, 228, 228, 228, 228, 228, 228, 228, 228, 228, 228, 228, 218, 218, 218, 218, 218, 218, 0, 0, 228, 228, 228, 218, 218, 218, 218, 228, 228, 228, 228, 218, 218, 218, 228, 228, 228, 228, 228, 228, 228, 228, 218, 218, 199, 218, 218, 218, 0, 0, 228, 228, 228, 218, 218, 218, 218, 228, 197, 218, 228, 218, 218, 218, 228, 228, 228, 228, 228, 228, 228, 228, 218, 218, 218, 218, 218, 218, 0, 0, 228, 228, 228, 228, 228, 228, 228, 228, 228, 228, 228, 218, 218, 218, 228, 228, 228, 228, 228, 228, 228, 228, 218, 218, 218, 218, 218, 218, 0, 0, 228, 228, 228, 228, 228, 228, 228, 218, 228, 228, 228, 228, 228, 228, 228, 228, 228, 228, 228, 228, 228, 228, 218, 218, 218, 218, 218, 218, 0, 0, 228, 228, 228, 228, 228, 228, 218, 218, 218, 228, 228, 228, 228, 228, 228, 228, 228, 228, 228, 218, 228, 228, 0, 0, 0, 0, 0, 0, 0, 0, 228, 228, 228, 228, 228, 228, 228, 218, 218, 228, 228, 228, 218, 228, 218, 228, 218, 228, 228, 218, 218, 218, 218, 218, 0, 0, 0, 0, 0, 0, 0, 0, 0, 0, 218, 218, 218, 218, 218, 218, 218, 218, 218, 218, 218, 218, 218, 218, 218, 218, 218, 218, 218, 218, 218, 218, 218, 218, 0, 0, 0, 0, 0, 0, 218, 218, 218, 218, 218, 196, 218, 218, 218, 218, 218, 218, 218, 218, 218, 196, 218, 218, 218, 218, 218, 218, 218, 218, 0, 0, 0, 0, 0, 0, 0, 0, 218, 218, 218, 218, 218, 218, 218, 218, 218, 218, 218, 218, 218, 218, 218, 218, 218, 218, 218, 218, 218, 218, 0, 0, 0, 0, 0, 0, 0, 0, 218, 218, 218, 218, 218, 218, 218, 218, 218, 218, 218, 218, 218, 218, 218, 218, 218, 218, 218, 218, 218, 218, 0, 0, 0, 0, 0, 0, 0, 0, 0, 218, 218, 218, 218, 218, 218, 218, 218, 218, 218, 0, 218, 218, 218, 0, 218, 218, 174, 188, 218, 218, 0, 0, 0, 0, 0, 0, 0, 0, 0, 0, 218, 218, 218, 218, 218, 218, 218, 218, 218, 0, 218, 0, 0, 0, 218, 218, 173, 184, 218, 218, 0, 0, 0, 0, 0, 0, 0, 0, 0, 0, 218, 218, 218, 218, 218, 218, 0, 218, 218, 0, 218, 0, 0, 0, 218, 218, 218, 218, 218, 218, 0, 0, 0, 0, 0, 0, 0, 0, 0, 0, 218, 218, 218, 218, 218, 218, 0, 0, 0, 0, 0, 0, 0, 0, 218, 218, 218, 218, 218, 218, 0, 0, 0, 0, 0, 0, 0, 0, 0, 0, 0, 0, 0, 0, 0, 218, 0, 0, 0, 0, 0, 0, 0, 0, 0, 0, 0, 0, 0, 0, 0, 0, 0, 0, 0, 0, 0, 0, 0, 0, 0, 0, 0, 0, 0, 0, 0, 0, 0, 0, 0, 0, 0, 0, 0, 0, 0, 0, 0, 0, 0, 0],
         "height":22,
         "name":"background",
         "opacity":1,
         "type":"tilelayer",
         "visible":true,
         "width":30,
         "x":0,
         "y":0
        }, 
        {
         "data":[0, 0, 0, 0, 0, 0, 0, 0, 0, 0, 0, 0, 0, 0, 0, 0, 0, 0, 0, 0, 0, 0, 0, 0, 0, 0, 0, 0, 0, 0, 0, 0, 0, 0, 0, 0, 0, 0, 0, 0, 0, 0, 0, 0, 0, 0, 0, 0, 0, 0, 0, 0, 0, 0, 0, 0, 0, 0, 0, 0, 0, 0, 0, 0, 0, 0, 0, 0, 0, 0, 109, 0, 0, 0, 0, 0, 0, 0, 0, 0, 0, 0, 0, 0, 0, 0, 0, 119, 0, 0, 0, 0, 0, 0, 0, 0, 0, 0, 0, 0, 101, 0, 0, 0, 0, 0, 0, 0, 0, 0, 0, 0, 0, 0, 0, 0, 0, 103, 0, 0, 0, 0, 0, 0, 0, 0, 0, 0, 0, 0, 101, 0, 0, 0, 0, 0, 0, 0, 0, 0, 0, 0, 0, 0, 0, 0, 0, 103, 0, 0, 0, 0, 0, 0, 0, 0, 0, 0, 0, 0, 101, 0, 0, 135, 0, 0, 0, 0, 0, 0, 125, 0, 0, 0, 0, 0, 0, 103, 0, 0, 0, 0, 109, 0, 0, 0, 0, 0, 0, 0, 133, 0, 0, 103, 0, 0, 0, 0, 0, 0, 101, 0, 0, 0, 0, 0, 0, 103, 0, 0, 0, 0, 101, 0, 0, 0, 0, 0, 0, 0, 0, 0, 0, 103, 0, 0, 0, 0, 0, 0, 101, 0, 0, 0, 0, 0, 0, 103, 0, 0, 0, 0, 101, 0, 0, 0, 0, 0, 0, 0, 0, 0, 0, 103, 0, 0, 0, 0, 0, 0, 101, 0, 0, 0, 0, 0, 0, 103, 0, 0, 0, 0, 101, 0, 0, 135, 0, 0, 0, 0, 0, 0, 0, 111, 0, 0, 0, 0, 0, 0, 117, 0, 0, 0, 0, 0, 0, 111, 0, 0, 0, 0, 101, 0, 0, 103, 0, 0, 0, 0, 0, 0, 0, 0, 0, 0, 0, 0, 0, 0, 0, 0, 0, 0, 0, 0, 0, 0, 0, 0, 0, 0, 117, 0, 125, 103, 0, 0, 0, 0, 0, 0, 0, 0, 0, 0, 0, 0, 0, 0, 0, 0, 0, 0, 0, 0, 0, 0, 0, 0, 0, 0, 0, 0, 101, 127, 0, 0, 0, 0, 0, 0, 0, 0, 0, 0, 0, 0, 0, 0, 0, 0, 0, 0, 0, 0, 0, 119, 0, 0, 0, 0, 0, 0, 117, 0, 125, 0, 0, 0, 0, 0, 0, 0, 0, 0, 0, 0, 0, 0, 0, 0, 0, 0, 0, 0, 0, 103, 0, 0, 0, 0, 0, 0, 0, 0, 101, 0, 0, 0, 0, 0, 0, 0, 0, 0, 0, 0, 0, 0, 0, 0, 0, 0, 0, 0, 0, 103, 0, 0, 0, 0, 0, 0, 0, 0, 117, 0, 125, 0, 0, 0, 0, 135, 0, 0, 0, 0, 0, 0, 0, 0, 125, 0, 0, 0, 0, 103, 0, 0, 0, 0, 0, 0, 0, 0, 0, 0, 101, 0, 0, 0, 0, 103, 0, 0, 0, 0, 0, 0, 0, 0, 101, 0, 0, 0, 0, 103, 0, 0, 0, 0, 0, 0, 0, 0, 0, 0, 101, 0, 0, 0, 0, 103, 0, 0, 0, 0, 0, 0, 0, 0, 101, 0, 0, 0, 0, 103, 0, 0, 0, 0, 0, 0, 0, 0, 0, 0, 101, 0, 0, 0, 0, 103, 0, 0, 0, 0, 0, 0, 0, 0, 101, 0, 0, 0, 0, 103, 0, 0, 0, 0, 0, 0, 0, 0, 0, 0, 117, 0, 0, 0, 0, 111, 0, 0, 0, 0, 0, 0, 0, 0, 117, 0, 0, 0, 0, 111, 0, 0, 0, 0, 0, 0, 0, 0, 0, 0, 0, 0, 0, 0, 0, 0, 0, 0, 0, 0, 0, 0, 0, 0, 0, 0, 0, 0, 0, 0, 0, 0, 0, 0, 0, 0, 0, 0, 0, 0, 0, 0, 0, 0, 0, 0, 0, 0, 0, 0, 0, 0, 0, 0, 0, 0, 0, 0, 0, 0, 0, 0],
         "height":22,
         "name":"rightleft",
         "opacity":1,
         "type":"tilelayer",
         "visible":true,
         "width":30,
         "x":0,
         "y":0
        }, 
        {
         "data":[0, 0, 0, 0, 0, 0, 0, 0, 0, 0, 0, 0, 0, 0, 0, 0, 0, 0, 0, 0, 0, 0, 0, 0, 0, 0, 0, 0, 0, 0, 0, 0, 0, 0, 0, 0, 0, 0, 0, 0, 0, 0, 0, 0, 0, 0, 0, 0, 0, 0, 0, 0, 0, 0, 0, 0, 0, 0, 0, 0, 0, 0, 0, 0, 0, 0, 0, 0, 0, 0, 118, 102, 102, 102, 102, 102, 102, 102, 102, 102, 102, 102, 102, 102, 102, 102, 102, 110, 0, 0, 0, 0, 0, 0, 0, 0, 0, 0, 0, 0, 0, 0, 0, 0, 0, 0, 0, 0, 0, 0, 0, 0, 0, 0, 0, 0, 0, 0, 0, 0, 0, 0, 0, 0, 0, 0, 0, 0, 0, 0, 0, 0, 0, 0, 0, 0, 0, 0, 0, 0, 0, 0, 0, 0, 0, 0, 0, 0, 0, 0, 0, 0, 0, 0, 0, 0, 0, 0, 0, 0, 0, 0, 0, 128, 104, 104, 104, 104, 104, 104, 136, 0, 0, 0, 0, 0, 0, 0, 0, 0, 0, 0, 118, 102, 102, 102, 102, 102, 102, 102, 126, 0, 0, 0, 0, 0, 0, 0, 0, 0, 0, 0, 0, 0, 0, 0, 0, 0, 0, 0, 0, 0, 0, 0, 0, 0, 0, 0, 0, 0, 0, 0, 0, 0, 0, 0, 0, 0, 0, 0, 0, 0, 0, 0, 0, 0, 0, 0, 0, 0, 0, 0, 0, 0, 0, 0, 0, 0, 0, 0, 0, 0, 0, 0, 0, 0, 0, 0, 0, 0, 0, 0, 0, 0, 0, 0, 0, 0, 0, 0, 0, 0, 0, 0, 0, 128, 104, 104, 104, 104, 104, 104, 104, 120, 0, 0, 0, 0, 0, 0, 112, 104, 104, 104, 104, 104, 104, 120, 0, 0, 0, 0, 0, 0, 0, 0, 0, 0, 0, 0, 0, 0, 0, 0, 0, 0, 0, 0, 0, 0, 0, 0, 0, 0, 0, 0, 0, 0, 0, 0, 0, 0, 112, 104, 136, 0, 0, 0, 0, 0, 0, 0, 0, 0, 0, 0, 0, 0, 0, 0, 0, 0, 0, 0, 0, 0, 0, 0, 0, 0, 0, 0, 0, 0, 0, 134, 102, 102, 102, 102, 102, 102, 102, 102, 102, 102, 102, 102, 102, 102, 102, 102, 102, 102, 102, 102, 102, 110, 0, 0, 0, 0, 0, 0, 112, 104, 136, 0, 0, 0, 0, 0, 0, 0, 0, 0, 0, 0, 0, 0, 0, 0, 0, 0, 0, 0, 0, 0, 0, 0, 0, 0, 0, 0, 0, 0, 0, 0, 0, 0, 0, 0, 0, 0, 0, 0, 0, 0, 0, 0, 0, 0, 0, 0, 0, 0, 0, 0, 0, 0, 0, 0, 0, 0, 0, 0, 112, 104, 136, 0, 0, 0, 0, 128, 104, 104, 104, 104, 104, 104, 104, 104, 136, 0, 0, 0, 0, 0, 0, 0, 0, 0, 0, 0, 0, 0, 0, 0, 0, 0, 0, 0, 0, 0, 0, 0, 0, 0, 0, 0, 0, 0, 0, 0, 0, 0, 0, 0, 0, 0, 0, 0, 0, 0, 0, 0, 0, 0, 0, 0, 0, 0, 0, 0, 0, 0, 0, 0, 0, 0, 0, 0, 0, 0, 0, 0, 0, 0, 0, 0, 0, 0, 0, 0, 0, 0, 0, 0, 0, 0, 0, 0, 0, 0, 0, 0, 0, 0, 0, 0, 0, 0, 0, 0, 0, 0, 0, 0, 0, 0, 0, 0, 0, 0, 0, 0, 0, 0, 112, 104, 104, 104, 104, 120, 0, 0, 0, 0, 0, 0, 0, 0, 112, 104, 104, 104, 104, 120, 0, 0, 0, 0, 0, 0, 0, 0, 0, 0, 0, 0, 0, 0, 0, 0, 0, 0, 0, 0, 0, 0, 0, 0, 0, 0, 0, 0, 0, 0, 0, 0, 0, 0, 0, 0, 0, 0, 0, 0, 0, 0, 0, 0, 0, 0, 0, 0, 0, 0, 0, 0, 0, 0, 0, 0, 0, 0, 0, 0, 0, 0],
         "height":22,
         "name":"updown",
         "opacity":1,
         "type":"tilelayer",
         "visible":true,
         "width":30,
         "x":0,
         "y":0
        }, 
        {
         "draworder":"topdown",
         "height":0,
         "name":"objects",
         "objects":[
                {
                 "gid":4,
                 "height":64,
                 "id":24,
                 "name":"",
                 "rotation":0,
                 "type":"",
                 "visible":true,
                 "width":64,
                 "x":1600,
                 "y":1280
                }, 
                {
                 "gid":5,
                 "height":64,
                 "id":39,
                 "name":"",
                 "properties":
                    {
                     "id_inputs":"43"
                    },
                 "propertytypes":
                    {
                     "id_inputs":"string"
                    },
                 "rotation":0,
                 "type":"",
                 "visible":true,
                 "width":64,
                 "x":1600,
                 "y":640
                }, 
                {
                 "gid":1,
                 "height":64,
                 "id":43,
                 "name":"",
                 "properties":
                    {
                     "id_tile":43
                    },
                 "propertytypes":
                    {
                     "id_tile":"int"
                    },
                 "rotation":0,
                 "type":"",
                 "visible":true,
                 "width":64,
                 "x":1472,
                 "y":640
                }],
         "opacity":1,
         "type":"objectgroup",
         "visible":true,
         "width":0,
         "x":0,
         "y":0
        }, 
        {
         "data":[141, 142, 141, 142, 141, 142, 141, 142, 141, 142, 141, 142, 141, 142, 141, 142, 141, 142, 141, 142, 141, 142, 141, 142, 141, 142, 141, 142, 141, 142, 149, 150, 149, 150, 149, 150, 149, 150, 149, 150, 149, 150, 149, 150, 149, 150, 149, 150, 149, 150, 149, 150, 149, 150, 149, 150, 149, 150, 149, 150, 141, 142, 141, 142, 141, 142, 141, 142, 141, 142, 0, 0, 0, 0, 0, 0, 0, 0, 0, 0, 0, 0, 0, 0, 0, 0, 0, 0, 141, 142, 149, 150, 149, 150, 149, 150, 149, 150, 149, 150, 0, 0, 0, 0, 0, 0, 0, 0, 0, 0, 0, 0, 0, 0, 0, 0, 0, 0, 149, 150, 141, 142, 141, 142, 141, 142, 141, 142, 141, 142, 0, 0, 0, 0, 0, 0, 0, 0, 0, 0, 0, 0, 0, 0, 0, 0, 0, 0, 141, 142, 149, 150, 149, 150, 149, 150, 149, 150, 149, 150, 0, 0, 0, 0, 0, 0, 0, 0, 0, 0, 0, 0, 0, 0, 0, 0, 0, 0, 149, 150, 141, 142, 0, 0, 0, 0, 0, 0, 0, 0, 0, 0, 0, 0, 141, 142, 141, 142, 141, 142, 0, 0, 0, 0, 0, 0, 0, 0, 141, 142, 149, 150, 0, 0, 0, 0, 0, 0, 0, 0, 0, 0, 0, 0, 149, 150, 149, 150, 149, 150, 0, 0, 0, 0, 0, 0, 0, 0, 149, 150, 141, 142, 0, 0, 0, 0, 0, 0, 0, 0, 0, 0, 0, 0, 141, 142, 141, 142, 141, 142, 0, 0, 0, 0, 0, 0, 0, 0, 141, 142, 149, 150, 0, 0, 0, 0, 0, 0, 0, 0, 0, 0, 0, 0, 149, 150, 149, 150, 149, 150, 0, 0, 0, 0, 0, 0, 0, 0, 149, 150, 141, 142, 0, 0, 0, 0, 141, 142, 141, 142, 141, 142, 141, 142, 141, 142, 141, 142, 141, 142, 141, 142, 141, 142, 141, 142, 141, 142, 141, 142, 149, 150, 0, 0, 0, 0, 149, 150, 149, 150, 149, 150, 149, 150, 149, 150, 149, 150, 149, 150, 149, 150, 149, 150, 149, 150, 149, 150, 149, 150, 141, 142, 141, 142, 0, 0, 0, 0, 0, 0, 0, 0, 0, 0, 0, 0, 0, 0, 0, 0, 0, 0, 0, 0, 0, 0, 0, 0, 141, 142, 149, 150, 149, 150, 0, 0, 0, 0, 0, 0, 0, 0, 0, 0, 0, 0, 0, 0, 0, 0, 0, 0, 0, 0, 0, 0, 0, 0, 149, 150, 141, 142, 141, 142, 141, 142, 0, 0, 0, 0, 0, 0, 0, 0, 0, 0, 0, 0, 0, 0, 0, 0, 0, 0, 0, 0, 0, 0, 141, 142, 149, 150, 149, 150, 149, 150, 0, 0, 0, 0, 0, 0, 0, 0, 0, 0, 0, 0, 0, 0, 0, 0, 0, 0, 0, 0, 0, 0, 149, 150, 141, 142, 141, 142, 141, 142, 141, 142, 0, 0, 0, 0, 0, 0, 141, 142, 141, 142, 141, 142, 141, 142, 0, 0, 0, 0, 0, 0, 141, 142, 149, 150, 149, 150, 149, 150, 149, 150, 0, 0, 0, 0, 0, 0, 149, 150, 149, 150, 149, 150, 149, 150, 0, 0, 0, 0, 0, 0, 149, 150, 141, 142, 141, 142, 141, 142, 141, 142, 0, 0, 0, 0, 0, 0, 141, 142, 141, 142, 141, 142, 141, 142, 0, 0, 0, 0, 0, 0, 141, 142, 149, 150, 149, 150, 149, 150, 149, 150, 0, 0, 0, 0, 0, 0, 149, 150, 149, 150, 149, 150, 149, 150, 0, 0, 0, 0, 0, 0, 149, 150, 141, 142, 141, 142, 141, 142, 141, 142, 141, 142, 141, 142, 141, 142, 141, 142, 141, 142, 141, 142, 141, 142, 141, 142, 141, 142, 141, 142, 141, 142, 149, 150, 149, 150, 149, 150, 149, 150, 149, 150, 149, 150, 149, 150, 149, 150, 149, 150, 149, 150, 149, 150, 149, 150, 149, 150, 149, 150, 149, 150],
         "height":22,
         "name":"collision",
         "opacity":1,
         "type":"tilelayer",
         "visible":true,
         "width":30,
         "x":0,
         "y":0
        }],
 "nextobjectid":45,
 "orientation":"orthogonal",
 "renderorder":"right-down",
 "tileheight":64,
 "tilesets":[
        {
         "columns":10,
         "firstgid":1,
         "image":"..\/tilesets\/objects.png",
         "imageheight":640,
         "imagewidth":640,
         "margin":0,
         "name":"objects",
         "spacing":0,
         "tilecount":100,
         "tileheight":64,
         "tilewidth":64
        }, 
        {
         "columns":8,
         "firstgid":101,
         "image":"..\/tilesets\/walls64.png",
         "imageheight":320,
         "imagewidth":512,
         "margin":0,
         "name":"walls64",
         "spacing":0,
         "tilecount":40,
         "tileheight":64,
         "tilewidth":64
        }, 
        {
         "columns":8,
         "firstgid":141,
         "image":"..\/tilesets\/collision_walls.png",
         "imageheight":256,
         "imagewidth":512,
         "margin":0,
         "name":"collision_walls",
         "spacing":0,
         "tilecount":32,
         "tileheight":64,
         "tilewidth":64
        }, 
        {
         "columns":11,
         "firstgid":173,
         "image":"..\/tilesets\/background.png",
         "imageheight":384,
         "imagewidth":704,
         "margin":0,
         "name":"background",
         "spacing":0,
         "tilecount":66,
         "tileheight":64,
         "tilewidth":64
        }],
 "tilewidth":64,
 "version":1,
 "width":30
}